…
#plotting relationship between a high schooler’s weight and their physical activity by geom_col
yrbss_new%>% 
  group_by(physically_active_7d) 

## # A tibble: 8,351 × 14
## # Groups:   physically_active_7d [8]
##      age gender grade hispanic race    height weight helmet_12m text_while_driv…
##    <int> <chr>  <chr> <chr>    <chr>    <dbl>  <dbl> <chr>      <chr>           
##  1    15 female 9     hispanic Native…   1.73   84.4 never      30              
##  2    15 female 9     not      Black …   1.6    55.8 never      0               
##  3    15 female 9     not      Black …   1.5    46.7 did not r… did not drive   
##  4    15 female 9     not      Black …   1.57   67.1 did not r… did not drive   
##  5    15 female 9     not      Black …   1.68   69.8 did not r… 0               
##  6    15 female 9     not      Black …   1.65   66.7 did not r… did not drive   
##  7    16 male   9     not      Black …   1.68   74.8 never      0               
##  8    16 male   9     not      Black …   1.85   74.4 did not r… did not drive   
##  9    15 male   9     not      Black …   1.78   70.3 did not r… 0               
## 10    14 male   9     not      Black …   1.73   73.5 never      did not drive   
## # … with 8,341 more rows, and 5 more variables: physically_active_7d <int>,
## #   hours_tv_per_school_day <chr>, strength_training_7d <int>,
## #   school_night_hours_sleep <chr>, mean_weight <dbl>
…
  # assume independence, i.e, there is no difference
  hypothesize(null = "independence") %>%
  
  # generate 1000 reps, of type "permute"
  generate(reps = 1000, type = "permute") %>%
  
  # calculate statistic of difference, namely "diff in means"
  calculate(stat = "diff in means", order = c("yes", "no"))

null_dist

## Response: weight (numeric)
## Explanatory: physical_3plus (factor)
## Null Hypothesis: independence
## # A tibble: 1,000 × 2
##    replicate    stat
##        <int>   <dbl>
##  1         1  0.514 
##  2         2 -0.224 
##  3         3 -0.310 
##  4         4 -0.0127
##  5         5 -0.547 
##  6         6 -0.639 
##  7         7  0.169 
##  8         8 -0.179 
##  9         9  0.149 
## 10        10 -0.324 
## # … with 990 more rows
…
